module obily

go 1.21

toolchain go1.21.3

require github.com/wailsapp/wails/v2 v2.8.1

require (
	github.com/bep/debounce v1.2.1 // indirect
	github.com/go-ole/go-ole v1.3.0 // indirect
	github.com/godbus/dbus/v5 v5.1.0 // indirect
	github.com/google/uuid v1.6.0 // indirect
	github.com/jchv/go-winloader v0.0.0-20210711035445-715c2860da7e // indirect
	github.com/labstack/echo/v4 v4.12.0 // indirect
	github.com/labstack/gommon v0.4.2 // indirect
	github.com/leaanthony/go-ansi-parser v1.6.1 // indirect
	github.com/leaanthony/gosod v1.0.3 // indirect
	github.com/leaanthony/slicer v1.6.0 // indirect
	github.com/leaanthony/u v1.1.1 // indirect
	github.com/mattn/go-colorable v0.1.13 // indirect
	github.com/mattn/go-isatty v0.0.20 // indirect
	github.com/pkg/browser v0.0.0-20240102092130-5ac0b6a4141c // indirect
	github.com/pkg/errors v0.9.1 // indirect
	github.com/rivo/uniseg v0.4.7 // indirect
	github.com/samber/lo v1.39.0 // indirect
	github.com/tkrajina/go-reflector v0.5.6 // indirect
	github.com/valyala/bytebufferpool v1.0.0 // indirect
	github.com/valyala/fasttemplate v1.2.2 // indirect
	github.com/wailsapp/go-webview2 v1.0.10 // indirect
	github.com/wailsapp/mimetype v1.4.1 // indirect
	golang.org/x/crypto v0.22.0 // indirect
	golang.org/x/exp v0.0.0-20240416160154-fe59bbe5cc7f // indirect
	golang.org/x/net v0.24.0 // indirect
	golang.org/x/sys v0.19.0 // indirect
	golang.org/x/text v0.14.0 // indirect
)

// replace github.com/wailsapp/wails/v2 v2.8.0 => C:\Users\tgillis\go\pkg\mod
